1-waves/bcd_wave.vcd
$date
  Mon Apr 21 12:44:50 2025
$end
$version
  GHDL v0
$end
$timescale
  1 fs
$end
$scope module standard $end
$upscope $end
$scope module std_logic_1164 $end
$upscope $end
$scope module numeric_std $end
$upscope $end
$scope module tb_binary_to_bcd $end
$var reg 1 ! clk $end
$var reg 1 " reset_n $end
$var reg 1 # level_ena $end
$var reg 4 $ level_binary[3:0] $end
$var reg 8 % level_bcd[7:0] $end
$var reg 1 & level_busy $end
$var reg 1 ' score_ena $end
$var reg 4 ( score_binary[3:0] $end
$var reg 8 ) score_bcd[7:0] $end
$var reg 1 * score_busy $end
$scope module level_converter $end
$var reg 1 + clk $end
$var reg 1 , reset_n $end
$var reg 1 - ena $end
$var reg 4 . binary[3:0] $end
$var reg 1 / busy $end
$var reg 8 0 bcd[7:0] $end
$comment state is not handled $end
$var reg 4 1 binary_reg[3:0] $end
$var reg 8 2 bcd_reg[7:0] $end
$var reg 1 3 converter_ena $end
$var reg 3 4 converter_inputs[2:0] $end
$scope module bcd_digits(1) $end
$scope module digit_0 $end
$var reg 1 5 clk $end
$var reg 1 6 reset_n $end
$var reg 1 7 ena $end
$var reg 1 8 binary $end
$var reg 1 9 c_out $end
$var reg 4 : bcd[3:0] $end
$upscope $end
$upscope $end
$scope module bcd_digits(2) $end
$scope module digit_0 $end
$var reg 1 ; clk $end
$var reg 1 < reset_n $end
$var reg 1 = ena $end
$var reg 1 > binary $end
$var reg 1 ? c_out $end
$var reg 4 @ bcd[3:0] $end
$upscope $end
$upscope $end
$upscope $end
$scope module score_converter $end
$var reg 1 A clk $end
$var reg 1 B reset_n $end
$var reg 1 C ena $end
$var reg 4 D binary[3:0] $end
$var reg 1 E busy $end
$var reg 8 F bcd[7:0] $end
$comment state is not handled $end
$var reg 4 G binary_reg[3:0] $end
$var reg 8 H bcd_reg[7:0] $end
$var reg 1 I converter_ena $end
$var reg 3 J converter_inputs[2:0] $end
$scope module bcd_digits(1) $end
$scope module digit_0 $end
$var reg 1 K clk $end
$var reg 1 L reset_n $end
$var reg 1 M ena $end
$var reg 1 N binary $end
$var reg 1 O c_out $end
$var reg 4 P bcd[3:0] $end
$upscope $end
$upscope $end
$scope module bcd_digits(2) $end
$scope module digit_0 $end
$var reg 1 Q clk $end
$var reg 1 R reset_n $end
$var reg 1 S ena $end
$var reg 1 T binary $end
$var reg 1 U c_out $end
$var reg 4 V bcd[3:0] $end
$upscope $end
$upscope $end
$upscope $end
$upscope $end
$enddefinitions $end
#0
0!
0"
0#
b0000 $
b00000000 %
1&
0'
b0000 (
b00000000 )
1*
0+
0,
0-
b0000 .
1/
b00000000 0
bUUUU 1
b00000000 2
03
b00U 4
05
06
07
U8
09
b0000 :
0;
0<
0=
0>
0?
b0000 @
0A
0B
0C
b0000 D
1E
b00000000 F
bUUUU G
b00000000 H
0I
b00U J
0K
0L
0M
UN
0O
b0000 P
0Q
0R
0S
0T
0U
b0000 V
#5000000
1!
1+
15
1;
1A
1K
1Q
#10000000
0!
0+
05
0;
0A
0K
0Q
#15000000
1!
1+
15
1;
1A
1K
1Q
#20000000
0!
0+
05
0;
0A
0K
0Q
#25000000
1!
1+
15
1;
1A
1K
1Q
#30000000
0!
0+
05
0;
0A
0K
0Q
#35000000
1!
1+
15
1;
1A
1K
1Q
#40000000
0!
0+
05
0;
0A
0K
0Q
#45000000
1!
1+
15
1;
1A
1K
1Q
#50000000
0!
0+
05
0;
0A
0K
0Q
#55000000
1!
1+
15
1;
1A
1K
1Q
#60000000
0!
0+
05
0;
0A
0K
0Q
#65000000
1!
1+
15
1;
1A
1K
1Q
#70000000
0!
0+
05
0;
0A
0K
0Q
#75000000
1!
1+
15
1;
1A
1K
1Q
#80000000
0!
0+
05
0;
0A
0K
0Q
#85000000
1!
1+
15
1;
1A
1K
1Q
#90000000
0!
0+
05
0;
0A
0K
0Q
#95000000
1!
1+
15
1;
1A
1K
1Q
#100000000
0!
1"
0+
1,
05
16
0;
1<
0A
1B
0K
1L
0Q
1R
#105000000
1!
0&
0*
1+
0/
15
1;
1A
0E
1K
1Q
#110000000
0!
0+
05
0;
0A
0K
0Q
#115000000
1!
1+
15
1;
1A
1K
1Q
#120000000
0!
0+
05
0;
0A
0K
0Q
#125000000
1!
1+
15
1;
1A
1K
1Q
#130000000
0!
0+
05
0;
0A
0K
0Q
#135000000
1!
1+
15
1;
1A
1K
1Q
#140000000
0!
0+
05
0;
0A
0K
0Q
#145000000
1!
1+
15
1;
1A
1K
1Q
#150000000
0!
1#
b0001 $
1'
b1001 (
0+
1-
b0001 .
05
0;
0A
1C
b1001 D
0K
0Q
#155000000
1!
1&
1*
1+
1/
b0001 1
13
15
17
1;
1=
1A
1E
b1001 G
1I
1K
1M
1Q
1S
#160000000
0!
0#
0'
0+
0-
05
0;
0A
0C
0K
0Q
#165000000
1!
1+
b0010 1
b0000000U 2
b000 4
15
08
b000U :
1;
1A
b0010 G
b0000000U H
b001 J
1K
1N
b000U P
1Q
#170000000
0!
0+
05
0;
0A
0K
0Q
#175000000
1!
1+
b0100 1
b000000U0 2
15
b00U0 :
1;
1A
b0100 G
b000000U1 H
b000 J
1K
0N
b00U1 P
1Q
#180000000
0!
0+
05
0;
0A
0K
0Q
#185000000
1!
1+
b1000 1
b00000U00 2
15
b0U00 :
1;
1A
b1000 G
b00000U10 H
1K
b0U10 P
1Q
#190000000
0!
0+
05
0;
0A
0K
0Q
#195000000
1!
1+
b0000 1
b0000U000 2
b001 4
15
18
bU000 :
1;
1A
b0000 G
b0000U100 H
b001 J
1K
1N
bU100 P
1Q
#200000000
0!
0+
05
0;
0A
0K
0Q
#205000000
1!
1+
b00000001 2
b0U0 4
15
08
U9
b0001 :
1;
U>
1A
b00001001 H
b0U0 J
1K
0N
UO
b1001 P
1Q
UT
#210000000
0!
0+
05
0;
0A
0K
0Q
#215000000
1!
b00000001 %
0&
b00001001 )
0*
1+
0/
b00000001 0
b000U0010 2
03
b000 4
15
07
09
b0010 :
1;
0=
0>
b000U @
1A
0E
b00001001 F
b000U0010 H
0I
b010 J
1K
0M
1O
b0010 P
1Q
0S
1T
b000U V
