1-waves/main_wave.vcd
$date
  Sun Apr 27 17:24:24 2025
$end
$version
  GHDL v0
$end
$timescale
  1 fs
$end
$scope module standard $end
$upscope $end
$scope module std_logic_1164 $end
$upscope $end
$scope module numeric_std $end
$upscope $end
$scope module tb_main $end
$var reg 1 ! clock_tb $end
$var reg 1 " reset_tb $end
$var reg 16 # switches_tb[15:0] $end
$var reg 1 $ btn_center_tb $end
$var reg 16 % led_tb[15:0] $end
$var reg 4 & an_tb[3:0] $end
$var reg 8 ' ca_tb[7:0] $end
$var reg 5 ( state_out_s[4:0] $end
$scope module uut $end
$var reg 1 ) clock $end
$var reg 1 * reset $end
$var reg 16 + switches[15:0] $end
$var reg 1 , btn_center $end
$var reg 16 - led[15:0] $end
$var reg 4 . an[3:0] $end
$var reg 8 / ca[7:0] $end
$var reg 5 0 state_out[4:0] $end
$var reg 1 1 pulse_center $end
$var reg 1 2 enable_patt $end
$var reg 1 3 start_compare $end
$var reg 16 4 pattern[15:0] $end
$var reg 1 5 done_patt $end
$var reg 2 6 level[1:0] $end
$var reg 4 7 ones_count[3:0] $end
$var reg 4 8 score[3:0] $end
$var reg 1 9 score_valid $end
$var reg 1 : level_up $end
$var reg 1 ; repeat_level $end
$var reg 2 < led_mode[1:0] $end
$var reg 5 = state_out_s[4:0] $end
$var reg 1 > busy_score $end
$var reg 1 ? busy_level $end
$var reg 8 @ bcd_score[7:0] $end
$var reg 8 A bcd_level[7:0] $end
$var reg 1 B reset_n_s $end
$var reg 1 C all_switches_down_s $end
$var reg 4 D extended_level[3:0] $end
$scope module debouncer_inst $end
$var reg 1 E clock $end
$var reg 1 F reset $end
$var reg 1 G bouncy $end
$var reg 1 H pulse $end
$var reg 2 I counter[1:0] $end
$var reg 1 J candidate_value $end
$var reg 1 K stable_value $end
$var reg 1 L pulse_reg $end
$var reg 1 M prev_stable $end
$upscope $end
$scope module pattern_generator_inst $end
$var reg 1 N clk $end
$var reg 1 O reset $end
$var reg 1 P enable $end
$var reg 4 Q ones_count[3:0] $end
$var reg 16 R pattern[15:0] $end
$var reg 1 S done $end
$comment state is not handled $end
$var integer 32 T shuffle_pass $end
$var reg 16 U pattern_reg[15:0] $end
$var reg 16 V lfsr[15:0] $end
$var integer 32 W i_count $end
$var integer 32 X target_cnt $end
$var reg 1 Y done_int $end
$upscope $end
$scope module datapath_inst $end
$var reg 1 Z clk $end
$var reg 1 [ reset $end
$var reg 1 \ start_compare $end
$var reg 2 ] level[1:0] $end
$var reg 16 ^ pattern_in[15:0] $end
$var reg 16 _ switches[15:0] $end
$var reg 4 ` score[3:0] $end
$var reg 1 a score_valid $end
$var reg 1 b level_up $end
$var reg 1 c repeat_level $end
$comment state is not handled $end
$var reg 16 d pattern_reg[15:0] $end
$var reg 16 e switches_reg[15:0] $end
$var integer 32 f score_reg $end
$var integer 32 g temp_score $end
$var integer 32 h bit_index $end
$var reg 1 i level_up_int $end
$var reg 1 j repeat_level_int $end
$var reg 1 k score_valid_int $end
$upscope $end
$scope module control_unit_inst $end
$var reg 1 l clk $end
$var reg 1 m reset $end
$var reg 1 n center_btn $end
$var reg 1 o done_patt $end
$var reg 1 p score_valid $end
$var reg 1 q level_up $end
$var reg 1 r repeat_level $end
$var reg 1 s all_switches_down $end
$var reg 2 t level[1:0] $end
$var reg 4 u ones_count[3:0] $end
$var reg 1 v enable_patt $end
$var reg 1 w start_compare $end
$var reg 2 x led_mode[1:0] $end
$var reg 5 y state_out[4:0] $end
$comment state is not handled $end
$comment next_state is not handled $end
$var reg 2 z level_reg[1:0] $end
$var integer 32 { delay_counter $end
$var integer 32 | blink_counter $end
$var reg 4 } ones_count_reg[3:0] $end
$var reg 1 !" level_up_reg $end
$var reg 1 "" repeat_level_reg $end
$var reg 1 #" switches_down_reg $end
$var reg 1 $" score_valid_reg $end
$upscope $end
$scope module bcd_score_inst $end
$var reg 1 %" clk $end
$var reg 1 &" reset_n $end
$var reg 1 '" ena $end
$var reg 4 (" binary[3:0] $end
$var reg 1 )" busy $end
$var reg 8 *" bcd[7:0] $end
$comment state is not handled $end
$var reg 4 +" binary_reg[3:0] $end
$var reg 8 ," bcd_reg[7:0] $end
$var reg 1 -" converter_ena $end
$var reg 3 ." converter_inputs[2:0] $end
$scope module bcd_digits(1) $end
$scope module digit_0 $end
$var reg 1 /" clk $end
$var reg 1 0" reset_n $end
$var reg 1 1" ena $end
$var reg 1 2" binary $end
$var reg 1 3" c_out $end
$var reg 4 4" bcd[3:0] $end
$upscope $end
$upscope $end
$scope module bcd_digits(2) $end
$scope module digit_0 $end
$var reg 1 5" clk $end
$var reg 1 6" reset_n $end
$var reg 1 7" ena $end
$var reg 1 8" binary $end
$var reg 1 9" c_out $end
$var reg 4 :" bcd[3:0] $end
$upscope $end
$upscope $end
$upscope $end
$scope module bcd_level_inst $end
$var reg 1 ;" clk $end
$var reg 1 <" reset_n $end
$var reg 1 =" ena $end
$var reg 4 >" binary[3:0] $end
$var reg 1 ?" busy $end
$var reg 8 @" bcd[7:0] $end
$comment state is not handled $end
$var reg 4 A" binary_reg[3:0] $end
$var reg 8 B" bcd_reg[7:0] $end
$var reg 1 C" converter_ena $end
$var reg 3 D" converter_inputs[2:0] $end
$scope module bcd_digits(1) $end
$scope module digit_0 $end
$var reg 1 E" clk $end
$var reg 1 F" reset_n $end
$var reg 1 G" ena $end
$var reg 1 H" binary $end
$var reg 1 I" c_out $end
$var reg 4 J" bcd[3:0] $end
$upscope $end
$upscope $end
$scope module bcd_digits(2) $end
$scope module digit_0 $end
$var reg 1 K" clk $end
$var reg 1 L" reset_n $end
$var reg 1 M" ena $end
$var reg 1 N" binary $end
$var reg 1 O" c_out $end
$var reg 4 P" bcd[3:0] $end
$upscope $end
$upscope $end
$upscope $end
$scope module seven_segment_driver_inst $end
$var reg 1 Q" clock $end
$var reg 1 R" reset $end
$var reg 4 S" digit0[3:0] $end
$var reg 4 T" digit1[3:0] $end
$var reg 4 U" digit2[3:0] $end
$var reg 4 V" digit3[3:0] $end
$var reg 8 W" ca[7:0] $end
$var reg 4 X" an[3:0] $end
$var reg 20 Y" flick_counter[19:0] $end
$var reg 2 Z" sel[1:0] $end
$var reg 4 [" digit[3:0] $end
$var reg 8 \" cathodes[7:0] $end
$upscope $end
$upscope $end
$upscope $end
$enddefinitions $end
#0
0!
1"
b0000000000000000 #
0$
b0000000000000000 %
b1110 &
b11000000 '
b00000 (
0)
1*
b0000000000000000 +
0,
b0000000000000000 -
b1110 .
b11000000 /
b00000 0
01
02
03
b0000000000000000 4
05
b00 6
b0000 7
b0000 8
09
0:
0;
b00 <
b00000 =
1>
1?
b00000000 @
b00000000 A
0B
1C
b0000 D
0E
1F
0G
0H
b11 I
0J
0K
0L
0M
0N
1O
0P
b0000 Q
b0000000000000000 R
0S
b0 T
b0000000000000000 U
b1111111111111111 V
b0 W
b0 X
0Y
0Z
1[
0\
b00 ]
b0000000000000000 ^
b0000000000000000 _
b0000 `
0a
0b
0c
b0000000000000000 d
b0000000000000000 e
b0 f
b0 g
b0 h
0i
0j
0k
0l
1m
0n
0o
0p
0q
0r
1s
b00 t
b0000 u
0v
0w
b00 x
b00000 y
b00 z
b0 {
b0 |
b0000 }
0!"
0""
0#"
0$"
0%"
0&"
1'"
b0000 ("
1)"
b00000000 *"
bUUUU +"
b00000000 ,"
0-"
b00U ."
0/"
00"
01"
U2"
03"
b0000 4"
05"
06"
07"
08"
09"
b0000 :"
0;"
0<"
1="
b0000 >"
1?"
b00000000 @"
bUUUU A"
b00000000 B"
0C"
b00U D"
0E"
0F"
0G"
UH"
0I"
b0000 J"
0K"
0L"
0M"
0N"
0O"
b0000 P"
0Q"
1R"
b0000 S"
b0000 T"
b0000 U"
b0000 V"
b11000000 W"
b1110 X"
b00000000000000000000 Y"
b00 Z"
b0000 ["
b11000000 \"
#5000000
1!
1)
1E
1N
1Z
1l
1%"
1/"
15"
1;"
1E"
1K"
1Q"
#10000000
0!
0)
0E
0N
0Z
0l
0%"
0/"
05"
0;"
0E"
0K"
0Q"
#15000000
1!
1)
1E
1N
1Z
1l
1%"
1/"
15"
1;"
1E"
1K"
1Q"
#20000000
0!
0"
0)
0*
1B
0E
0F
0N
0O
0Z
0[
0l
0m
0%"
1&"
0/"
10"
05"
16"
0;"
1<"
0E"
1F"
0K"
1L"
0Q"
0R"
#25000000
1!
1)
1E
b10 I
1N
1Z
1l
1#"
1%"
b0000 +"
1-"
1/"
11"
15"
17"
1;"
b0000 A"
1C"
1E"
1G"
1K"
1M"
1Q"
b00000000000000000001 Y"
#30000000
0!
0)
0E
0N
0Z
0l
0%"
0/"
05"
0;"
0E"
0K"
0Q"
#35000000
1!
1)
1E
b01 I
1N
1Z
1l
1%"
b0000000U ,"
b000 ."
1/"
02"
b000U 4"
15"
1;"
b0000000U B"
b000 D"
1E"
0H"
b000U J"
1K"
1Q"
b00000000000000000010 Y"
#40000000
0!
1$
0)
1,
0E
1G
0N
0Z
0l
0%"
0/"
05"
0;"
0E"
0K"
0Q"
#45000000
1!
1)
1E
b11 I
1J
1N
1Z
1l
1%"
b000000U0 ,"
1/"
b00U0 4"
15"
1;"
b000000U0 B"
1E"
b00U0 J"
1K"
1Q"
b00000000000000000011 Y"
#50000000
0!
0)
0E
0N
0Z
0l
0%"
0/"
05"
0;"
0E"
0K"
0Q"
#55000000
1!
1)
1E
b10 I
1N
1Z
1l
1%"
b00000U00 ,"
1/"
b0U00 4"
15"
1;"
b00000U00 B"
1E"
b0U00 J"
1K"
1Q"
b00000000000000000100 Y"
#60000000
0!
0)
0E
0N
0Z
0l
0%"
0/"
05"
0;"
0E"
0K"
0Q"
#65000000
1!
1)
1E
b01 I
1N
1Z
1l
1%"
b0000U000 ,"
1/"
bU000 4"
15"
1;"
b0000U000 B"
1E"
bU000 J"
1K"
1Q"
b00000000000000000101 Y"
#70000000
0!
0)
0E
0N
0Z
0l
0%"
0/"
05"
0;"
0E"
0K"
0Q"
#75000000
1!
1)
1E
b00 I
1N
1Z
1l
1%"
b00000000 ,"
b0U0 ."
1/"
U3"
b0000 4"
15"
U8"
1;"
b00000000 B"
b0U0 D"
1E"
UI"
b0000 J"
1K"
UN"
1Q"
b00000000000000000110 Y"
#80000000
0!
0)
0E
0N
0Z
0l
0%"
0/"
05"
0;"
0E"
0K"
0Q"
#85000000
1!
1)
0>
0?
1E
1K
1N
1Z
1l
1%"
0)"
b000U0000 ,"
0-"
b000 ."
1/"
01"
03"
15"
07"
08"
b000U :"
1;"
0?"
b000U0000 B"
0C"
b000 D"
1E"
0G"
0I"
1K"
0M"
0N"
b000U P"
1Q"
b00000000000000000111 Y"
#90000000
0!
0)
0E
0N
0Z
0l
0%"
0/"
05"
0;"
0E"
0K"
0Q"
#95000000
1!
1)
11
1>
1?
1E
1H
1L
1M
1N
1Z
1l
1n
1%"
1)"
1-"
1/"
11"
15"
17"
1;"
1?"
1C"
1E"
1G"
1K"
1M"
1Q"
b00000000000000001000 Y"
#96000000
#100000000
0!
0)
0E
0N
0Z
0l
0%"
0/"
05"
0;"
0E"
0K"
0Q"
#105000000
1!
b1111111111111111 %
b00001 (
1)
b1111111111111111 -
b00001 0
01
b01 <
b00001 =
1E
0H
0L
1N
1Z
1l
0n
b01 x
b00001 y
1%"
b00U00000 ,"
1/"
15"
b00U0 :"
1;"
b00U00000 B"
1E"
1K"
b00U0 P"
1Q"
b00000000000000001001 Y"
#110000000
0!
0)
0E
0N
0Z
0l
0%"
0/"
05"
0;"
0E"
0K"
0Q"
#115000000
1!
1)
1E
1N
1Z
1l
b01 x
b1 |
1%"
b0U000000 ,"
1/"
15"
b0U00 :"
1;"
b0U000000 B"
1E"
1K"
b0U00 P"
1Q"
b00000000000000001010 Y"
#120000000
0!
0)
0E
0N
0Z
0l
0%"
0/"
05"
0;"
0E"
0K"
0Q"
#125000000
1!
1)
1E
1N
1Z
1l
b01 x
b10 |
1%"
bU0000000 ,"
1/"
15"
bU000 :"
1;"
bU0000000 B"
1E"
1K"
bU000 P"
1Q"
b00000000000000001011 Y"
#130000000
0!
0)
0E
0N
0Z
0l
0%"
0/"
05"
0;"
0E"
0K"
0Q"
#135000000
1!
1)
1E
1N
1Z
1l
b01 x
b11 |
1%"
b00000000 ,"
bU00 ."
1/"
15"
U9"
b0000 :"
1;"
b00000000 B"
bU00 D"
1E"
1K"
UO"
b0000 P"
1Q"
b00000000000000001100 Y"
#140000000
0!
0)
0E
0N
0Z
0l
0%"
0/"
05"
0;"
0E"
0K"
0Q"
#145000000
1!
1)
1E
1N
1Z
1l
b01 x
b100 |
1%"
b000 ."
1/"
15"
09"
1;"
b000 D"
1E"
1K"
0O"
1Q"
b00000000000000001101 Y"
#150000000
0!
0)
0E
0N
0Z
0l
0%"
0/"
05"
0;"
0E"
0K"
0Q"
#155000000
1!
1)
0>
0?
1E
1N
1Z
1l
b01 x
b101 |
1%"
0)"
0-"
1/"
01"
15"
07"
1;"
0?"
0C"
1E"
0G"
1K"
0M"
1Q"
b00000000000000001110 Y"
#160000000
0!
b0000000011110000 #
0$
0)
b0000000011110000 +
0,
0C
0E
0G
0N
0Z
b0000000011110000 _
0l
0s
0%"
0/"
05"
0;"
0E"
0K"
0Q"
#165000000
1!
1)
1>
1?
1E
b11 I
0J
1N
1Z
1l
b01 x
b110 |
0#"
1%"
1)"
1-"
1/"
11"
15"
17"
1;"
1?"
1C"
1E"
1G"
1K"
1M"
1Q"
b00000000000000001111 Y"
#170000000
0!
0)
0E
0N
0Z
0l
0%"
0/"
05"
0;"
0E"
0K"
0Q"
#175000000
1!
b0000000000000000 %
b00010 (
1)
b0000000000000000 -
b00010 0
12
b00 <
b00010 =
1E
b10 I
1N
1P
1Z
1l
1v
b00 x
b00010 y
1%"
1/"
15"
1;"
1E"
1K"
1Q"
b00000000000000010000 Y"
#180000000
0!
0)
0E
0N
0Z
0l
0%"
0/"
05"
0;"
0E"
0K"
0Q"
#185000000
1!
b00011 (
1)
b00011 0
02
b0110 7
b00011 =
1E
b01 I
1N
0P
b0110 Q
1Z
1l
b0110 u
0v
b00011 y
b0 |
b0110 }
1%"
1/"
15"
1;"
1E"
1K"
1Q"
b00000000000000010001 Y"
#190000000
0!
0)
0E
0N
0Z
0l
0%"
0/"
05"
0;"
0E"
0K"
0Q"
#195000000
1!
1)
1E
b00 I
1N
b1111 W
1Z
1l
1%"
1/"
15"
1;"
1E"
1K"
1Q"
b00000000000000010010 Y"
#200000000
0!
0)
0E
0N
0Z
0l
0%"
0/"
05"
0;"
0E"
0K"
0Q"
#205000000
1!
1)
1E
0K
1N
b1111111111111110 V
b1110 W
1Z
1l
1%"
1/"
15"
1;"
1E"
1K"
1Q"
b00000000000000010011 Y"
#210000000
0!
0)
0E
0N
0Z
0l
0%"
0/"
05"
0;"
0E"
0K"
0Q"
#215000000
1!
1)
1E
0M
1N
b1111111111111100 V
b1101 W
1Z
1l
1%"
1/"
15"
1;"
1E"
1K"
1Q"
b00000000000000010100 Y"
#220000000
0!
0)
0E
0N
0Z
0l
0%"
0/"
05"
0;"
0E"
0K"
0Q"
#225000000
1!
1)
0>
0?
1E
1N
b1111111111111000 V
b1100 W
1Z
1l
1%"
0)"
0-"
1/"
01"
15"
07"
1;"
0?"
0C"
1E"
0G"
1K"
0M"
1Q"
b00000000000000010101 Y"
#230000000
0!
0)
0E
0N
0Z
0l
0%"
0/"
05"
0;"
0E"
0K"
0Q"
#235000000
1!
1)
1>
1?
1E
1N
b1111111111110000 V
b1011 W
1Z
1l
1%"
1)"
1-"
1/"
11"
15"
17"
1;"
1?"
1C"
1E"
1G"
1K"
1M"
1Q"
b00000000000000010110 Y"
#240000000
0!
0)
0E
0N
0Z
0l
0%"
0/"
05"
0;"
0E"
0K"
0Q"
#245000000
1!
1)
1E
1N
b1111111111100000 V
b1010 W
1Z
1l
1%"
1/"
15"
1;"
1E"
1K"
1Q"
b00000000000000010111 Y"
#250000000
0!
0)
0E
0N
0Z
0l
0%"
0/"
05"
0;"
0E"
0K"
0Q"
#255000000
1!
1)
1E
1N
b1111111111000000 V
b1001 W
1Z
1l
1%"
1/"
15"
1;"
1E"
1K"
1Q"
b00000000000000011000 Y"
#260000000
0!
b0000111100001111 #
0)
b0000111100001111 +
0E
0N
0Z
b0000111100001111 _
0l
0%"
0/"
05"
0;"
0E"
0K"
0Q"
#265000000
1!
1)
1E
1N
b1111111110000000 V
b1000 W
1Z
1l
1%"
1/"
15"
1;"
1E"
1K"
1Q"
b00000000000000011001 Y"
#270000000
0!
0)
0E
0N
0Z
0l
0%"
0/"
05"
0;"
0E"
0K"
0Q"
#275000000
1!
1)
1E
1N
b1111111100000000 V
b111 W
1Z
1l
1%"
1/"
15"
1;"
1E"
1K"
1Q"
b00000000000000011010 Y"
#280000000
0!
0)
0E
0N
0Z
0l
0%"
0/"
05"
0;"
0E"
0K"
0Q"
#285000000
1!
1)
1E
1N
b1111111000000000 V
b110 W
1Z
1l
1%"
1/"
15"
1;"
1E"
1K"
1Q"
b00000000000000011011 Y"
#290000000
0!
0)
0E
0N
0Z
0l
0%"
0/"
05"
0;"
0E"
0K"
0Q"
#295000000
1!
1)
0>
0?
1E
1N
b1111110000000000 V
b101 W
1Z
1l
1%"
0)"
0-"
1/"
01"
15"
07"
1;"
0?"
0C"
1E"
0G"
1K"
0M"
1Q"
b00000000000000011100 Y"
#300000000
0!
0)
0E
0N
0Z
0l
0%"
0/"
05"
0;"
0E"
0K"
0Q"
#305000000
1!
1)
1>
1?
1E
1N
b1111100000000000 V
b100 W
1Z
1l
1%"
1)"
1-"
1/"
11"
15"
17"
1;"
1?"
1C"
1E"
1G"
1K"
1M"
1Q"
b00000000000000011101 Y"
#310000000
0!
0)
0E
0N
0Z
0l
0%"
0/"
05"
0;"
0E"
0K"
0Q"
#315000000
1!
1)
1E
1N
b1111000000000000 V
b11 W
1Z
1l
1%"
1/"
15"
1;"
1E"
1K"
1Q"
b00000000000000011110 Y"
#320000000
0!
0)
0E
0N
0Z
0l
0%"
0/"
05"
0;"
0E"
0K"
0Q"
#325000000
1!
1)
1E
1N
b1110000000000000 V
b10 W
1Z
1l
1%"
1/"
15"
1;"
1E"
1K"
1Q"
b00000000000000011111 Y"
#330000000
0!
0)
0E
0N
0Z
0l
0%"
0/"
05"
0;"
0E"
0K"
0Q"
#335000000
1!
1)
1E
1N
b1100000000000000 V
b1 W
1Z
1l
1%"
1/"
15"
1;"
1E"
1K"
1Q"
b00000000000000100000 Y"
#340000000
0!
0)
0E
0N
0Z
0l
0%"
0/"
05"
0;"
0E"
0K"
0Q"
#345000000
1!
1)
1E
1N
b1000000000000001 V
b0 W
1Z
1l
1%"
1/"
15"
1;"
1E"
1K"
1Q"
b00000000000000100001 Y"
#350000000
0!
0)
0E
0N
0Z
0l
0%"
0/"
05"
0;"
0E"
0K"
0Q"
#355000000
1!
1)
1E
1N
b1 T
b0000000000000011 V
b1111 W
1Z
1l
1%"
1/"
15"
1;"
1E"
1K"
1Q"
b00000000000000100010 Y"
#360000000
0!
b0000000000000000 #
0)
b0000000000000000 +
1C
0E
0N
0Z
b0000000000000000 _
0l
1s
0%"
0/"
05"
0;"
0E"
0K"
0Q"
#365000000
1!
1)
0>
0?
1E
1N
b0000000000000110 V
b1110 W
1Z
1l
1#"
1%"
0)"
0-"
1/"
01"
15"
07"
1;"
0?"
0C"
1E"
0G"
1K"
0M"
1Q"
b00000000000000100011 Y"
#370000000
0!
0)
0E
0N
0Z
0l
0%"
0/"
05"
0;"
0E"
0K"
0Q"
#375000000
1!
1)
1>
1?
1E
1N
b0000000000001100 V
b1101 W
1Z
1l
1%"
1)"
1-"
1/"
11"
15"
17"
1;"
1?"
1C"
1E"
1G"
1K"
1M"
1Q"
b00000000000000100100 Y"
#380000000
0!
0)
0E
0N
0Z
0l
0%"
0/"
05"
0;"
0E"
0K"
0Q"
#385000000
1!
1)
1E
1N
b0000000000011000 V
b1100 W
1Z
1l
1%"
1/"
15"
1;"
1E"
1K"
1Q"
b00000000000000100101 Y"
#390000000
0!
0)
0E
0N
0Z
0l
0%"
0/"
05"
0;"
0E"
0K"
0Q"
#395000000
1!
1)
1E
1N
b0000000000110000 V
b1011 W
1Z
1l
1%"
1/"
15"
1;"
1E"
1K"
1Q"
b00000000000000100110 Y"
#400000000
0!
0)
0E
0N
0Z
0l
0%"
0/"
05"
0;"
0E"
0K"
0Q"
#405000000
1!
1)
1E
1N
b0000000001100000 V
b1010 W
1Z
1l
1%"
1/"
15"
1;"
1E"
1K"
1Q"
b00000000000000100111 Y"
#410000000
0!
0)
0E
0N
0Z
0l
0%"
0/"
05"
0;"
0E"
0K"
0Q"
#415000000
1!
1)
1E
1N
b0000000011000000 V
b1001 W
1Z
1l
1%"
1/"
15"
1;"
1E"
1K"
1Q"
b00000000000000101000 Y"
#420000000
0!
0)
0E
0N
0Z
0l
0%"
0/"
05"
0;"
0E"
0K"
0Q"
#425000000
1!
1)
1E
1N
b0000000110000000 V
b1000 W
1Z
1l
1%"
1/"
15"
1;"
1E"
1K"
1Q"
b00000000000000101001 Y"
#430000000
0!
0)
0E
0N
0Z
0l
0%"
0/"
05"
0;"
0E"
0K"
0Q"
#435000000
1!
1)
0>
0?
1E
1N
b0000001100000000 V
b111 W
1Z
1l
1%"
0)"
0-"
1/"
01"
15"
07"
1;"
0?"
0C"
1E"
0G"
1K"
0M"
1Q"
b00000000000000101010 Y"
#440000000
0!
0)
0E
0N
0Z
0l
0%"
0/"
05"
0;"
0E"
0K"
0Q"
#445000000
1!
1)
1>
1?
1E
1N
b0000011000000000 V
b110 W
1Z
1l
1%"
1)"
1-"
1/"
11"
15"
17"
1;"
1?"
1C"
1E"
1G"
1K"
1M"
1Q"
b00000000000000101011 Y"
#450000000
0!
0)
0E
0N
0Z
0l
0%"
0/"
05"
0;"
0E"
0K"
0Q"
#455000000
1!
1)
1E
1N
b0000110000000000 V
b101 W
1Z
1l
1%"
1/"
15"
1;"
1E"
1K"
1Q"
b00000000000000101100 Y"
#460000000
0!
0)
0E
0N
0Z
0l
0%"
0/"
05"
0;"
0E"
0K"
0Q"
#465000000
1!
1)
1E
1N
b0001100000000000 V
b100 W
1Z
1l
1%"
1/"
15"
1;"
1E"
1K"
1Q"
b00000000000000101101 Y"
#470000000
0!
0)
0E
0N
0Z
0l
0%"
0/"
05"
0;"
0E"
0K"
0Q"
#475000000
1!
1)
1E
1N
b0011000000000000 V
b11 W
1Z
1l
1%"
1/"
15"
1;"
1E"
1K"
1Q"
b00000000000000101110 Y"
#480000000
0!
0)
0E
0N
0Z
0l
0%"
0/"
05"
0;"
0E"
0K"
0Q"
#485000000
1!
1)
1E
1N
b0110000000000001 V
b10 W
1Z
1l
1%"
1/"
15"
1;"
1E"
1K"
1Q"
b00000000000000101111 Y"
#490000000
0!
0)
0E
0N
0Z
0l
0%"
0/"
05"
0;"
0E"
0K"
0Q"
#495000000
1!
1)
1E
1N
b1100000000000011 V
b1 W
1Z
1l
1%"
1/"
15"
1;"
1E"
1K"
1Q"
b00000000000000110000 Y"
#500000000
0!
0)
0E
0N
0Z
0l
0%"
0/"
05"
0;"
0E"
0K"
0Q"
#505000000
1!
1)
0>
0?
1E
1N
b1000000000000111 V
b0 W
1Z
1l
1%"
0)"
0-"
1/"
01"
15"
07"
1;"
0?"
0C"
1E"
0G"
1K"
0M"
1Q"
b00000000000000110001 Y"
#510000000
0!
0)
0E
0N
0Z
0l
0%"
0/"
05"
0;"
0E"
0K"
0Q"
#515000000
1!
1)
1>
1?
1E
1N
b0000000000001111 V
1Z
1l
1%"
1)"
1-"
1/"
11"
15"
17"
1;"
1?"
1C"
1E"
1G"
1K"
1M"
1Q"
b00000000000000110010 Y"
#520000000
0!
0)
0E
0N
0Z
0l
0%"
0/"
05"
0;"
0E"
0K"
0Q"
#525000000
1!
1)
15
1E
1N
1S
1Y
1Z
1l
1o
1%"
1/"
15"
1;"
1E"
1K"
1Q"
b00000000000000110011 Y"
#530000000
0!
0)
0E
0N
0Z
0l
0%"
0/"
05"
0;"
0E"
0K"
0Q"
#535000000
1!
b00100 (
1)
b00100 0
05
b10 <
b00100 =
1E
1N
0S
0Y
1Z
1l
0o
b10 x
b00100 y
1%"
1/"
15"
1;"
1E"
1K"
1Q"
b00000000000000110100 Y"
#540000000
0!
0)
0E
0N
0Z
0l
0%"
0/"
05"
0;"
0E"
0K"
0Q"
#545000000
1!
1)
1E
1N
1Z
1l
b10 x
b1 {
1%"
1/"
15"
1;"
1E"
1K"
1Q"
b00000000000000110101 Y"
#550000000
0!
0)
0E
0N
0Z
0l
0%"
0/"
05"
0;"
0E"
0K"
0Q"
#555000000
1!
1)
1E
1N
1Z
1l
b10 x
b10 {
1%"
1/"
15"
1;"
1E"
1K"
1Q"
b00000000000000110110 Y"
#560000000
0!
0)
0E
0N
0Z
0l
0%"
0/"
05"
0;"
0E"
0K"
0Q"
#565000000
1!
1)
1E
1N
1Z
1l
b10 x
b11 {
1%"
1/"
15"
1;"
1E"
1K"
1Q"
b00000000000000110111 Y"
#570000000
0!
0)
0E
0N
0Z
0l
0%"
0/"
05"
0;"
0E"
0K"
0Q"
#575000000
1!
1)
0>
0?
1E
1N
1Z
1l
b10 x
b100 {
1%"
0)"
0-"
1/"
01"
15"
07"
1;"
0?"
0C"
1E"
0G"
1K"
0M"
1Q"
b00000000000000111000 Y"
#580000000
0!
0)
0E
0N
0Z
0l
0%"
0/"
05"
0;"
0E"
0K"
0Q"
#585000000
1!
1)
1>
1?
1E
1N
1Z
1l
b10 x
b101 {
1%"
1)"
1-"
1/"
11"
15"
17"
1;"
1?"
1C"
1E"
1G"
1K"
1M"
1Q"
b00000000000000111001 Y"
#590000000
0!
0)
0E
0N
0Z
0l
0%"
0/"
05"
0;"
0E"
0K"
0Q"
#595000000
1!
1)
1E
1N
1Z
1l
b10 x
b110 {
1%"
1/"
15"
1;"
1E"
1K"
1Q"
b00000000000000111010 Y"
#600000000
0!
0)
0E
0N
0Z
0l
0%"
0/"
05"
0;"
0E"
0K"
0Q"
#605000000
1!
1)
1E
1N
1Z
1l
b10 x
b111 {
1%"
1/"
15"
1;"
1E"
1K"
1Q"
b00000000000000111011 Y"
#610000000
0!
0)
0E
0N
0Z
0l
0%"
0/"
05"
0;"
0E"
0K"
0Q"
#615000000
1!
1)
1E
1N
1Z
1l
b10 x
b1000 {
1%"
1/"
15"
1;"
1E"
1K"
1Q"
b00000000000000111100 Y"
#620000000
0!
0)
0E
0N
0Z
0l
0%"
0/"
05"
0;"
0E"
0K"
0Q"
#625000000
1!
1)
1E
1N
1Z
1l
b10 x
b1001 {
1%"
1/"
15"
1;"
1E"
1K"
1Q"
b00000000000000111101 Y"
#630000000
0!
0)
0E
0N
0Z
0l
0%"
0/"
05"
0;"
0E"
0K"
0Q"
#635000000
1!
1)
1E
1N
1Z
1l
b10 x
b1010 {
1%"
1/"
15"
1;"
1E"
1K"
1Q"
b00000000000000111110 Y"
#640000000
0!
0)
0E
0N
0Z
0l
0%"
0/"
05"
0;"
0E"
0K"
0Q"
#645000000
1!
1)
0>
0?
1E
1N
1Z
1l
b10 x
b1011 {
1%"
0)"
0-"
1/"
01"
15"
07"
1;"
0?"
0C"
1E"
0G"
1K"
0M"
1Q"
b00000000000000111111 Y"
#650000000
0!
0)
0E
0N
0Z
0l
0%"
0/"
05"
0;"
0E"
0K"
0Q"
#655000000
1!
1)
1>
1?
1E
1N
1Z
1l
b10 x
b1100 {
1%"
1)"
1-"
1/"
11"
15"
17"
1;"
1?"
1C"
1E"
1G"
1K"
1M"
1Q"
b00000000000001000000 Y"
#660000000
0!
0)
0E
0N
0Z
0l
0%"
0/"
05"
0;"
0E"
0K"
0Q"
#665000000
1!
1)
1E
1N
1Z
1l
b10 x
b1101 {
1%"
1/"
15"
1;"
1E"
1K"
1Q"
b00000000000001000001 Y"
#670000000
0!
0)
0E
0N
0Z
0l
0%"
0/"
05"
0;"
0E"
0K"
0Q"
#675000000
1!
1)
1E
1N
1Z
1l
b10 x
b1110 {
1%"
1/"
15"
1;"
1E"
1K"
1Q"
b00000000000001000010 Y"
#680000000
0!
0)
0E
0N
0Z
0l
0%"
0/"
05"
0;"
0E"
0K"
0Q"
#685000000
1!
1)
1E
1N
1Z
1l
b10 x
b1111 {
1%"
1/"
15"
1;"
1E"
1K"
1Q"
b00000000000001000011 Y"
#690000000
0!
0)
0E
0N
0Z
0l
0%"
0/"
05"
0;"
0E"
0K"
0Q"
#695000000
1!
1)
1E
1N
1Z
1l
b10 x
b10000 {
1%"
1/"
15"
1;"
1E"
1K"
1Q"
b00000000000001000100 Y"
#700000000
0!
0)
0E
0N
0Z
0l
0%"
0/"
05"
0;"
0E"
0K"
0Q"
#705000000
1!
1)
1E
1N
1Z
1l
b10 x
b10001 {
1%"
1/"
15"
1;"
1E"
1K"
1Q"
b00000000000001000101 Y"
#710000000
0!
0)
0E
0N
0Z
0l
0%"
0/"
05"
0;"
0E"
0K"
0Q"
#715000000
1!
1)
0>
0?
1E
1N
1Z
1l
b10 x
b10010 {
1%"
0)"
0-"
1/"
01"
15"
07"
1;"
0?"
0C"
1E"
0G"
1K"
0M"
1Q"
b00000000000001000110 Y"
#720000000
0!
0)
0E
0N
0Z
0l
0%"
0/"
05"
0;"
0E"
0K"
0Q"
#725000000
1!
1)
1>
1?
1E
1N
1Z
1l
b10 x
b10011 {
1%"
1)"
1-"
1/"
11"
15"
17"
1;"
1?"
1C"
1E"
1G"
1K"
1M"
1Q"
b00000000000001000111 Y"
#730000000
0!
0)
0E
0N
0Z
0l
0%"
0/"
05"
0;"
0E"
0K"
0Q"
