4-unfinished/main_wave.vcd
$date
  Tue Apr 22 15:02:35 2025
$end
$version
  GHDL v0
$end
$timescale
  1 fs
$end
$scope module standard $end
$upscope $end
$scope module std_logic_1164 $end
$upscope $end
$scope module numeric_std $end
$upscope $end
$scope module tb_main $end
$var reg 1 ! clk_tb $end
$var reg 1 " reset_tb $end
$var reg 16 # switches_tb[15:0] $end
$var reg 1 $ btnc_tb $end
$var reg 16 % leds_tb[15:0] $end
$var reg 8 & seg_tb[7:0] $end
$scope module uut $end
$var reg 1 ' clk $end
$var reg 1 ( reset $end
$var reg 16 ) switches[15:0] $end
$var reg 1 * btnc $end
$var reg 16 + leds[15:0] $end
$var reg 8 , seg_level_score[7:0] $end
$var reg 1 - reset_n $end
$var reg 1 . center_btn_db $end
$var reg 2 / level[1:0] $end
$var reg 4 0 ones_count[3:0] $end
$var reg 1 1 enable_patt $end
$var reg 16 2 pattern[15:0] $end
$var reg 1 3 done_patt $end
$var reg 1 4 start_compare $end
$var reg 4 5 score[3:0] $end
$var reg 1 6 score_valid $end
$var reg 1 7 level_up $end
$var reg 2 8 led_mode[1:0] $end
$var reg 16 9 led_output[15:0] $end
$var reg 8 : score_bcd[7:0] $end
$var reg 8 ; level_bcd[7:0] $end
$var reg 1 < score_busy $end
$var reg 1 = level_busy $end
$var reg 1 > bcd_ena_score $end
$var reg 1 ? bcd_ena_level $end
$var reg 1 @ blink_clk $end
$var reg 24 A blink_counter[23:0] $end
$var reg 1 B in_win_state $end
$var reg 1 C all_switches_down_s $end
$scope module debouncer_inst $end
$upscope $end
$scope module control_unit_inst $end
$upscope $end
$scope module pattern_gen_inst $end
$upscope $end
$scope module datapath_inst $end
$upscope $end
$scope module bcd_level $end
$upscope $end
$scope module bcd_score $end
$upscope $end
$upscope $end
$upscope $end
$enddefinitions $end
#0
0!
1"
b0000000000000000 #
0$
b0000000000000000 %
b00000000 &
0'
1(
b0000000000000000 )
0*
b0000000000000000 +
b00000000 ,
0-
U.
bUU /
bUUUU 0
U1
bUUUUUUUUUUUUUUUU 2
U3
U4
bUUUU 5
U6
U7
bUU 8
b0000000000000000 9
bUUUUUUUU :
bUUUUUUUU ;
U<
U=
0>
0?
0@
b000000000000000000000000 A
0B
1C
#5000000
1!
1'
b000000000000000000000001 A
#10000000
0!
0'
#15000000
1!
1'
b000000000000000000000010 A
#20000000
0!
0'
#25000000
1!
1'
b000000000000000000000011 A
#30000000
0!
0"
0'
0(
1-
#35000000
1!
1'
b000000000000000000000100 A
#40000000
0!
0'
#45000000
1!
1'
b000000000000000000000101 A
#50000000
0!
0'
#55000000
1!
1'
b000000000000000000000110 A
#60000000
0!
1$
0'
1*
#65000000
1!
1'
b000000000000000000000111 A
#70000000
0!
0'
#75000000
1!
1'
b000000000000000000001000 A
#80000000
0!
0'
#85000000
1!
1'
b000000000000000000001001 A
#90000000
0!
0'
#95000000
1!
1'
b000000000000000000001010 A
#100000000
0!
0'
#105000000
1!
1'
b000000000000000000001011 A
#110000000
0!
0'
#115000000
1!
1'
b000000000000000000001100 A
#120000000
0!
0'
#125000000
1!
1'
b000000000000000000001101 A
#130000000
0!
0'
#135000000
1!
1'
b000000000000000000001110 A
#140000000
0!
0'
#145000000
1!
1'
b000000000000000000001111 A
#150000000
0!
0'
#155000000
1!
1'
b000000000000000000010000 A
#160000000
0!
0'
#165000000
1!
1'
b000000000000000000010001 A
#170000000
0!
0'
#175000000
1!
1'
b000000000000000000010010 A
#180000000
0!
0'
#185000000
1!
1'
b000000000000000000010011 A
#190000000
0!
0'
#195000000
1!
1'
b000000000000000000010100 A
#200000000
0!
0'
#205000000
1!
1'
b000000000000000000010101 A
#210000000
0!
0'
#215000000
1!
1'
b000000000000000000010110 A
#220000000
0!
0'
#225000000
1!
1'
b000000000000000000010111 A
#230000000
0!
0'
#235000000
1!
1'
b000000000000000000011000 A
#240000000
0!
0'
#245000000
1!
1'
b000000000000000000011001 A
#250000000
0!
0'
#255000000
1!
1'
b000000000000000000011010 A
#260000000
0!
0'
#265000000
1!
1'
b000000000000000000011011 A
#270000000
0!
0'
#275000000
1!
1'
b000000000000000000011100 A
#280000000
0!
0'
#285000000
1!
1'
b000000000000000000011101 A
#290000000
0!
0'
#295000000
1!
1'
b000000000000000000011110 A
#300000000
0!
0'
#305000000
1!
1'
b000000000000000000011111 A
#310000000
0!
0'
#315000000
1!
1'
b000000000000000000100000 A
#320000000
0!
0'
#325000000
1!
1'
b000000000000000000100001 A
#330000000
0!
0'
#335000000
1!
1'
b000000000000000000100010 A
#340000000
0!
0'
#345000000
1!
1'
b000000000000000000100011 A
#350000000
0!
0'
#355000000
1!
1'
b000000000000000000100100 A
#360000000
0!
0'
#365000000
1!
1'
b000000000000000000100101 A
#370000000
0!
0'
#375000000
1!
1'
b000000000000000000100110 A
#380000000
0!
0'
#385000000
1!
1'
b000000000000000000100111 A
#390000000
0!
0'
#395000000
1!
1'
b000000000000000000101000 A
#400000000
0!
0'
#405000000
1!
1'
b000000000000000000101001 A
#410000000
0!
0'
#415000000
1!
1'
b000000000000000000101010 A
#420000000
0!
0'
#425000000
1!
1'
b000000000000000000101011 A
#430000000
0!
0'
#435000000
1!
1'
b000000000000000000101100 A
#440000000
0!
0'
#445000000
1!
1'
b000000000000000000101101 A
#450000000
0!
0'
#455000000
1!
1'
b000000000000000000101110 A
#460000000
0!
0'
#465000000
1!
1'
b000000000000000000101111 A
#470000000
0!
0'
#475000000
1!
1'
b000000000000000000110000 A
#480000000
0!
0'
#485000000
1!
1'
b000000000000000000110001 A
#490000000
0!
0'
#495000000
1!
1'
b000000000000000000110010 A
#500000000
0!
0'
#505000000
1!
1'
b000000000000000000110011 A
#510000000
0!
0'
#515000000
1!
1'
b000000000000000000110100 A
#520000000
0!
0'
#525000000
1!
1'
b000000000000000000110101 A
#530000000
0!
0'
#535000000
1!
1'
b000000000000000000110110 A
#540000000
0!
0'
#545000000
1!
1'
b000000000000000000110111 A
#550000000
0!
0'
#555000000
1!
1'
b000000000000000000111000 A
#560000000
0!
0$
0'
0*
#565000000
1!
1'
b000000000000000000111001 A
#570000000
0!
0'
#575000000
1!
1'
b000000000000000000111010 A
#580000000
0!
0'
#585000000
1!
1'
b000000000000000000111011 A
#590000000
0!
0'
#595000000
1!
1'
b000000000000000000111100 A
#600000000
0!
0'
#605000000
1!
1'
b000000000000000000111101 A
#610000000
0!
0'
#615000000
1!
1'
b000000000000000000111110 A
#620000000
0!
0'
#625000000
1!
1'
b000000000000000000111111 A
#630000000
0!
0'
#635000000
1!
1'
b000000000000000001000000 A
#640000000
0!
0'
#645000000
1!
1'
b000000000000000001000001 A
#650000000
0!
0'
#655000000
1!
1'
b000000000000000001000010 A
#660000000
0!
0'
#665000000
1!
1'
b000000000000000001000011 A
#670000000
0!
0'
#675000000
1!
1'
b000000000000000001000100 A
#680000000
0!
0'
#685000000
1!
1'
b000000000000000001000101 A
#690000000
0!
0'
#695000000
1!
1'
b000000000000000001000110 A
#700000000
0!
0'
#705000000
1!
1'
b000000000000000001000111 A
#710000000
0!
0'
#715000000
1!
1'
b000000000000000001001000 A
#720000000
0!
0'
#725000000
1!
1'
b000000000000000001001001 A
#730000000
0!
0'
#735000000
1!
1'
b000000000000000001001010 A
#740000000
0!
0'
#745000000
1!
1'
b000000000000000001001011 A
#750000000
0!
0'
#755000000
1!
1'
b000000000000000001001100 A
#760000000
0!
b0000000011110000 #
0'
b0000000011110000 )
0C
#765000000
1!
1'
b000000000000000001001101 A
#770000000
0!
0'
#775000000
1!
1'
b000000000000000001001110 A
#780000000
0!
0'
#785000000
1!
1'
b000000000000000001001111 A
#790000000
0!
0'
#795000000
1!
1'
b000000000000000001010000 A
#800000000
0!
0'
#805000000
1!
1'
b000000000000000001010001 A
#810000000
0!
0'
#815000000
1!
1'
b000000000000000001010010 A
#820000000
0!
0'
#825000000
1!
1'
b000000000000000001010011 A
#830000000
0!
0'
#835000000
1!
1'
b000000000000000001010100 A
#840000000
0!
0'
#845000000
1!
1'
b000000000000000001010101 A
#850000000
0!
0'
#855000000
1!
1'
b000000000000000001010110 A
#860000000
0!
0'
#865000000
1!
1'
b000000000000000001010111 A
#870000000
0!
0'
#875000000
1!
1'
b000000000000000001011000 A
#880000000
0!
0'
#885000000
1!
1'
b000000000000000001011001 A
#890000000
0!
0'
#895000000
1!
1'
b000000000000000001011010 A
#900000000
0!
0'
#905000000
1!
1'
b000000000000000001011011 A
#910000000
0!
0'
#915000000
1!
1'
b000000000000000001011100 A
#920000000
0!
0'
#925000000
1!
1'
b000000000000000001011101 A
#930000000
0!
0'
#935000000
1!
1'
b000000000000000001011110 A
#940000000
0!
0'
#945000000
1!
1'
b000000000000000001011111 A
#950000000
0!
0'
#955000000
1!
1'
b000000000000000001100000 A
#960000000
0!
1$
0'
1*
#965000000
1!
1'
b000000000000000001100001 A
#970000000
0!
0$
0'
0*
#975000000
1!
1'
b000000000000000001100010 A
#980000000
0!
0'
#985000000
1!
1'
b000000000000000001100011 A
#990000000
0!
0'
#995000000
1!
1'
b000000000000000001100100 A
#1000000000
0!
0'
#1005000000
1!
1'
b000000000000000001100101 A
#1010000000
0!
0'
#1015000000
1!
1'
b000000000000000001100110 A
#1020000000
0!
0'
#1025000000
1!
1'
b000000000000000001100111 A
#1030000000
0!
0'
#1035000000
1!
1'
b000000000000000001101000 A
#1040000000
0!
0'
#1045000000
1!
1'
b000000000000000001101001 A
#1050000000
0!
0'
#1055000000
1!
1'
b000000000000000001101010 A
#1060000000
0!
0'
#1065000000
1!
1'
b000000000000000001101011 A
#1070000000
0!
0'
#1075000000
1!
1'
b000000000000000001101100 A
#1080000000
0!
0'
#1085000000
1!
1'
b000000000000000001101101 A
#1090000000
0!
0'
#1095000000
1!
1'
b000000000000000001101110 A
#1100000000
0!
0'
#1105000000
1!
1'
b000000000000000001101111 A
#1110000000
0!
0'
#1115000000
1!
1'
b000000000000000001110000 A
#1120000000
0!
0'
#1125000000
1!
1'
b000000000000000001110001 A
#1130000000
0!
0'
#1135000000
1!
1'
b000000000000000001110010 A
#1140000000
0!
0'
#1145000000
1!
1'
b000000000000000001110011 A
#1150000000
0!
0'
#1155000000
1!
1'
b000000000000000001110100 A
#1160000000
0!
0'
#1165000000
1!
1'
b000000000000000001110101 A
#1170000000
0!
0'
#1175000000
1!
1'
b000000000000000001110110 A
#1180000000
0!
0'
#1185000000
1!
1'
b000000000000000001110111 A
#1190000000
0!
0'
#1195000000
1!
1'
b000000000000000001111000 A
#1200000000
0!
0'
#1205000000
1!
1'
b000000000000000001111001 A
#1210000000
0!
0'
#1215000000
1!
1'
b000000000000000001111010 A
#1220000000
0!
0'
#1225000000
1!
1'
b000000000000000001111011 A
#1230000000
0!
0'
#1235000000
1!
1'
b000000000000000001111100 A
#1240000000
0!
0'
#1245000000
1!
1'
b000000000000000001111101 A
#1250000000
0!
0'
#1255000000
1!
1'
b000000000000000001111110 A
#1260000000
0!
0'
#1265000000
1!
1'
b000000000000000001111111 A
#1270000000
0!
0'
#1275000000
1!
1'
b000000000000000010000000 A
#1280000000
0!
0'
#1285000000
1!
1'
b000000000000000010000001 A
#1290000000
0!
0'
#1295000000
1!
1'
b000000000000000010000010 A
#1300000000
0!
0'
#1305000000
1!
1'
b000000000000000010000011 A
#1310000000
0!
0'
#1315000000
1!
1'
b000000000000000010000100 A
#1320000000
0!
0'
#1325000000
1!
1'
b000000000000000010000101 A
#1330000000
0!
0'
#1335000000
1!
1'
b000000000000000010000110 A
#1340000000
0!
0'
#1345000000
1!
1'
b000000000000000010000111 A
#1350000000
0!
0'
#1355000000
1!
1'
b000000000000000010001000 A
#1360000000
0!
0'
#1365000000
1!
1'
b000000000000000010001001 A
#1370000000
0!
0'
#1375000000
1!
1'
b000000000000000010001010 A
#1380000000
0!
0'
#1385000000
1!
1'
b000000000000000010001011 A
#1390000000
0!
0'
#1395000000
1!
1'
b000000000000000010001100 A
#1400000000
0!
0'
#1405000000
1!
1'
b000000000000000010001101 A
#1410000000
0!
0'
#1415000000
1!
1'
b000000000000000010001110 A
#1420000000
0!
0'
#1425000000
1!
1'
b000000000000000010001111 A
#1430000000
0!
0'
#1435000000
1!
1'
b000000000000000010010000 A
#1440000000
0!
0'
#1445000000
1!
1'
b000000000000000010010001 A
#1450000000
0!
0'
#1455000000
1!
1'
b000000000000000010010010 A
#1460000000
0!
0'
#1465000000
1!
1'
b000000000000000010010011 A
#1470000000
0!
b0000000000000000 #
0'
b0000000000000000 )
1C
#1475000000
1!
1'
b000000000000000010010100 A
#1480000000
0!
0'
#1485000000
1!
1'
b000000000000000010010101 A
#1490000000
0!
0'
#1495000000
1!
1'
b000000000000000010010110 A
#1500000000
0!
0'
#1505000000
1!
1'
b000000000000000010010111 A
#1510000000
0!
0'
#1515000000
1!
1'
b000000000000000010011000 A
#1520000000
0!
0'
#1525000000
1!
1'
b000000000000000010011001 A
#1530000000
0!
0'
#1535000000
1!
1'
b000000000000000010011010 A
#1540000000
0!
0'
#1545000000
1!
1'
b000000000000000010011011 A
#1550000000
0!
0'
#1555000000
1!
1'
b000000000000000010011100 A
#1560000000
0!
0'
#1565000000
1!
1'
b000000000000000010011101 A
#1570000000
0!
0'
#1575000000
1!
1'
b000000000000000010011110 A
#1580000000
0!
0'
#1585000000
1!
1'
b000000000000000010011111 A
#1590000000
0!
0'
#1595000000
1!
1'
b000000000000000010100000 A
#1600000000
0!
0'
#1605000000
1!
1'
b000000000000000010100001 A
#1610000000
0!
0'
#1615000000
1!
1'
b000000000000000010100010 A
#1620000000
0!
0'
#1625000000
1!
1'
b000000000000000010100011 A
#1630000000
0!
0'
#1635000000
1!
1'
b000000000000000010100100 A
#1640000000
0!
0'
#1645000000
1!
1'
b000000000000000010100101 A
#1650000000
0!
0'
#1655000000
1!
1'
b000000000000000010100110 A
#1660000000
0!
0'
#1665000000
1!
1'
b000000000000000010100111 A
#1670000000
0!
0'
#1675000000
1!
1'
b000000000000000010101000 A
#1680000000
0!
0'
#1685000000
1!
1'
b000000000000000010101001 A
#1690000000
0!
0'
#1695000000
1!
1'
b000000000000000010101010 A
#1700000000
0!
0'
#1705000000
1!
1'
b000000000000000010101011 A
#1710000000
0!
0'
#1715000000
1!
1'
b000000000000000010101100 A
#1720000000
0!
0'
#1725000000
1!
1'
b000000000000000010101101 A
#1730000000
0!
0'
#1735000000
1!
1'
b000000000000000010101110 A
#1740000000
0!
0'
#1745000000
1!
1'
b000000000000000010101111 A
#1750000000
0!
0'
#1755000000
1!
1'
b000000000000000010110000 A
#1760000000
0!
0'
#1765000000
1!
1'
b000000000000000010110001 A
#1770000000
0!
0'
#1775000000
1!
1'
b000000000000000010110010 A
#1780000000
0!
0'
#1785000000
1!
1'
b000000000000000010110011 A
#1790000000
0!
0'
#1795000000
1!
1'
b000000000000000010110100 A
#1800000000
0!
0'
#1805000000
1!
1'
b000000000000000010110101 A
#1810000000
0!
0'
#1815000000
1!
1'
b000000000000000010110110 A
#1820000000
0!
0'
#1825000000
1!
1'
b000000000000000010110111 A
#1830000000
0!
0'
#1835000000
1!
1'
b000000000000000010111000 A
#1840000000
0!
0'
#1845000000
1!
1'
b000000000000000010111001 A
#1850000000
0!
0'
#1855000000
1!
1'
b000000000000000010111010 A
#1860000000
0!
0'
#1865000000
1!
1'
b000000000000000010111011 A
#1870000000
0!
0'
#1875000000
1!
1'
b000000000000000010111100 A
#1880000000
0!
0'
#1885000000
1!
1'
b000000000000000010111101 A
#1890000000
0!
0'
#1895000000
1!
1'
b000000000000000010111110 A
#1900000000
0!
0'
#1905000000
1!
1'
b000000000000000010111111 A
#1910000000
0!
0'
#1915000000
1!
1'
b000000000000000011000000 A
#1920000000
0!
0'
#1925000000
1!
1'
b000000000000000011000001 A
#1930000000
0!
0'
#1935000000
1!
1'
b000000000000000011000010 A
#1940000000
0!
0'
#1945000000
1!
1'
b000000000000000011000011 A
#1950000000
0!
0'
#1955000000
1!
1'
b000000000000000011000100 A
#1960000000
0!
0'
#1965000000
1!
1'
b000000000000000011000101 A
#1970000000
0!
0'
#1975000000
1!
1'
b000000000000000011000110 A
#1980000000
0!
0'
#1985000000
1!
1'
b000000000000000011000111 A
#1990000000
0!
0'
#1995000000
1!
1'
b000000000000000011001000 A
#2000000000
0!
0'
#2005000000
1!
1'
b000000000000000011001001 A
#2010000000
0!
0'
#2015000000
1!
1'
b000000000000000011001010 A
#2020000000
0!
0'
#2025000000
1!
1'
b000000000000000011001011 A
#2030000000
0!
0'
#2035000000
1!
1'
b000000000000000011001100 A
#2040000000
0!
0'
#2045000000
1!
1'
b000000000000000011001101 A
#2050000000
0!
0'
#2055000000
1!
1'
b000000000000000011001110 A
#2060000000
0!
0'
#2065000000
1!
1'
b000000000000000011001111 A
#2070000000
0!
0'
#2075000000
1!
1'
b000000000000000011010000 A
#2080000000
0!
0'
#2085000000
1!
1'
b000000000000000011010001 A
#2090000000
0!
0'
#2095000000
1!
1'
b000000000000000011010010 A
#2100000000
0!
0'
#2105000000
1!
1'
b000000000000000011010011 A
#2110000000
0!
0'
#2115000000
1!
1'
b000000000000000011010100 A
#2120000000
0!
0'
#2125000000
1!
1'
b000000000000000011010101 A
#2130000000
0!
0'
#2135000000
1!
1'
b000000000000000011010110 A
#2140000000
0!
0'
#2145000000
1!
1'
b000000000000000011010111 A
#2150000000
0!
0'
#2155000000
1!
1'
b000000000000000011011000 A
#2160000000
0!
0'
#2165000000
1!
1'
b000000000000000011011001 A
#2170000000
0!
0'
#2175000000
1!
1'
b000000000000000011011010 A
#2180000000
0!
0'
#2185000000
1!
1'
b000000000000000011011011 A
#2190000000
0!
0'
#2195000000
1!
1'
b000000000000000011011100 A
#2200000000
0!
0'
#2205000000
1!
1'
b000000000000000011011101 A
#2210000000
0!
0'
#2215000000
1!
1'
b000000000000000011011110 A
#2220000000
0!
0'
#2225000000
1!
1'
b000000000000000011011111 A
#2230000000
0!
0'
#2235000000
1!
1'
b000000000000000011100000 A
#2240000000
0!
0'
#2245000000
1!
1'
b000000000000000011100001 A
#2250000000
0!
0'
#2255000000
1!
1'
b000000000000000011100010 A
#2260000000
0!
0'
#2265000000
1!
1'
b000000000000000011100011 A
#2270000000
0!
0'
#2275000000
1!
1'
b000000000000000011100100 A
#2280000000
0!
0'
#2285000000
1!
1'
b000000000000000011100101 A
#2290000000
0!
0'
#2295000000
1!
1'
b000000000000000011100110 A
#2300000000
0!
0'
#2305000000
1!
1'
b000000000000000011100111 A
#2310000000
0!
0'
#2315000000
1!
1'
b000000000000000011101000 A
#2320000000
0!
0'
#2325000000
1!
1'
b000000000000000011101001 A
#2330000000
0!
0'
#2335000000
1!
1'
b000000000000000011101010 A
#2340000000
0!
0'
#2345000000
1!
1'
b000000000000000011101011 A
#2350000000
0!
0'
#2355000000
1!
1'
b000000000000000011101100 A
#2360000000
0!
0'
#2365000000
1!
1'
b000000000000000011101101 A
#2370000000
0!
0'
#2375000000
1!
1'
b000000000000000011101110 A
#2380000000
0!
0'
#2385000000
1!
1'
b000000000000000011101111 A
#2390000000
0!
0'
#2395000000
1!
1'
b000000000000000011110000 A
#2400000000
0!
0'
#2405000000
1!
1'
b000000000000000011110001 A
#2410000000
0!
0'
#2415000000
1!
1'
b000000000000000011110010 A
#2420000000
0!
0'
#2425000000
1!
1'
b000000000000000011110011 A
#2430000000
0!
0'
#2435000000
1!
1'
b000000000000000011110100 A
#2440000000
0!
0'
#2445000000
1!
1'
b000000000000000011110101 A
#2450000000
0!
0'
#2455000000
1!
1'
b000000000000000011110110 A
#2460000000
0!
0'
#2465000000
1!
1'
b000000000000000011110111 A
#2470000000
0!
0'
#2475000000
1!
1'
b000000000000000011111000 A
#2480000000
0!
0'
#2485000000
1!
1'
b000000000000000011111001 A
#2490000000
0!
0'
#2495000000
1!
1'
b000000000000000011111010 A
#2500000000
0!
0'
#2505000000
1!
1'
b000000000000000011111011 A
#2510000000
0!
0'
#2515000000
1!
1'
b000000000000000011111100 A
#2520000000
0!
0'
#2525000000
1!
1'
b000000000000000011111101 A
#2530000000
0!
0'
#2535000000
1!
1'
b000000000000000011111110 A
#2540000000
0!
0'
#2545000000
1!
1'
b000000000000000011111111 A
#2550000000
0!
0'
#2555000000
1!
1'
b000000000000000100000000 A
#2560000000
0!
0'
#2565000000
1!
1'
b000000000000000100000001 A
#2570000000
0!
0'
#2575000000
1!
1'
b000000000000000100000010 A
#2580000000
0!
0'
#2585000000
1!
1'
b000000000000000100000011 A
#2590000000
0!
0'
#2595000000
1!
1'
b000000000000000100000100 A
#2600000000
0!
0'
#2605000000
1!
1'
b000000000000000100000101 A
#2610000000
0!
0'
#2615000000
1!
1'
b000000000000000100000110 A
#2620000000
0!
0'
#2625000000
1!
1'
b000000000000000100000111 A
#2630000000
0!
0'
#2635000000
1!
1'
b000000000000000100001000 A
#2640000000
0!
0'
#2645000000
1!
1'
b000000000000000100001001 A
#2650000000
0!
0'
#2655000000
1!
1'
b000000000000000100001010 A
#2660000000
0!
0'
#2665000000
1!
1'
b000000000000000100001011 A
#2670000000
0!
1$
0'
1*
#2675000000
1!
1'
b000000000000000100001100 A
#2680000000
0!
b0000000011110000 #
0$
0'
b0000000011110000 )
0*
0C
#2685000000
1!
1'
b000000000000000100001101 A
#2690000000
0!
0'
#2695000000
1!
1'
b000000000000000100001110 A
#2700000000
0!
0'
#2705000000
1!
1'
b000000000000000100001111 A
#2710000000
0!
0'
#2715000000
1!
1'
b000000000000000100010000 A
#2720000000
0!
0'
#2725000000
1!
1'
b000000000000000100010001 A
#2730000000
0!
0'
#2735000000
1!
1'
b000000000000000100010010 A
#2740000000
0!
0'
#2745000000
1!
1'
b000000000000000100010011 A
#2750000000
0!
0'
#2755000000
1!
1'
b000000000000000100010100 A
#2760000000
0!
0'
#2765000000
1!
1'
b000000000000000100010101 A
#2770000000
0!
0'
#2775000000
1!
1'
b000000000000000100010110 A
#2780000000
0!
0'
#2785000000
1!
1'
b000000000000000100010111 A
#2790000000
0!
0'
#2795000000
1!
1'
b000000000000000100011000 A
#2800000000
0!
0'
#2805000000
1!
1'
b000000000000000100011001 A
#2810000000
0!
0'
#2815000000
1!
1'
b000000000000000100011010 A
#2820000000
0!
0'
#2825000000
1!
1'
b000000000000000100011011 A
#2830000000
0!
0'
#2835000000
1!
1'
b000000000000000100011100 A
#2840000000
0!
0'
#2845000000
1!
1'
b000000000000000100011101 A
#2850000000
0!
0'
#2855000000
1!
1'
b000000000000000100011110 A
#2860000000
0!
0'
#2865000000
1!
1'
b000000000000000100011111 A
#2870000000
0!
0'
#2875000000
1!
1'
b000000000000000100100000 A
#2880000000
0!
0'
#2885000000
1!
1'
b000000000000000100100001 A
#2890000000
0!
0'
#2895000000
1!
1'
b000000000000000100100010 A
#2900000000
0!
0'
#2905000000
1!
1'
b000000000000000100100011 A
#2910000000
0!
0'
#2915000000
1!
1'
b000000000000000100100100 A
#2920000000
0!
0'
#2925000000
1!
1'
b000000000000000100100101 A
#2930000000
0!
0'
#2935000000
1!
1'
b000000000000000100100110 A
#2940000000
0!
0'
#2945000000
1!
1'
b000000000000000100100111 A
#2950000000
0!
0'
#2955000000
1!
1'
b000000000000000100101000 A
#2960000000
0!
0'
#2965000000
1!
1'
b000000000000000100101001 A
#2970000000
0!
0'
#2975000000
1!
1'
b000000000000000100101010 A
#2980000000
0!
0'
#2985000000
1!
1'
b000000000000000100101011 A
#2990000000
0!
0'
#2995000000
1!
1'
b000000000000000100101100 A
#3000000000
0!
0'
#3005000000
1!
1'
b000000000000000100101101 A
#3010000000
0!
0'
#3015000000
1!
1'
b000000000000000100101110 A
#3020000000
0!
0'
#3025000000
1!
1'
b000000000000000100101111 A
#3030000000
0!
0'
#3035000000
1!
1'
b000000000000000100110000 A
#3040000000
0!
0'
#3045000000
1!
1'
b000000000000000100110001 A
#3050000000
0!
0'
#3055000000
1!
1'
b000000000000000100110010 A
#3060000000
0!
0'
#3065000000
1!
1'
b000000000000000100110011 A
#3070000000
0!
0'
#3075000000
1!
1'
b000000000000000100110100 A
#3080000000
0!
0'
#3085000000
1!
1'
b000000000000000100110101 A
#3090000000
0!
0'
#3095000000
1!
1'
b000000000000000100110110 A
#3100000000
0!
0'
#3105000000
1!
1'
b000000000000000100110111 A
#3110000000
0!
0'
#3115000000
1!
1'
b000000000000000100111000 A
#3120000000
0!
0'
#3125000000
1!
1'
b000000000000000100111001 A
#3130000000
0!
0'
#3135000000
1!
1'
b000000000000000100111010 A
#3140000000
0!
0'
#3145000000
1!
1'
b000000000000000100111011 A
#3150000000
0!
0'
#3155000000
1!
1'
b000000000000000100111100 A
#3160000000
0!
0'
#3165000000
1!
1'
b000000000000000100111101 A
#3170000000
0!
0'
#3175000000
1!
1'
b000000000000000100111110 A
#3180000000
0!
1$
0'
1*
#3185000000
1!
1'
b000000000000000100111111 A
#3190000000
0!
b0000000000000000 #
0$
0'
b0000000000000000 )
0*
1C
#3195000000
1!
1'
b000000000000000101000000 A
#3200000000
0!
0'
#3205000000
1!
1'
b000000000000000101000001 A
#3210000000
0!
0'
#3215000000
1!
1'
b000000000000000101000010 A
#3220000000
0!
0'
#3225000000
1!
1'
b000000000000000101000011 A
#3230000000
0!
0'
#3235000000
1!
1'
b000000000000000101000100 A
#3240000000
0!
0'
#3245000000
1!
1'
b000000000000000101000101 A
#3250000000
0!
0'
#3255000000
1!
1'
b000000000000000101000110 A
#3260000000
0!
0'
#3265000000
1!
1'
b000000000000000101000111 A
#3270000000
0!
0'
#3275000000
1!
1'
b000000000000000101001000 A
#3280000000
0!
0'
#3285000000
1!
1'
b000000000000000101001001 A
#3290000000
0!
0'
#3295000000
1!
1'
b000000000000000101001010 A
#3300000000
0!
0'
#3305000000
1!
1'
b000000000000000101001011 A
#3310000000
0!
0'
#3315000000
1!
1'
b000000000000000101001100 A
#3320000000
0!
0'
#3325000000
1!
1'
b000000000000000101001101 A
#3330000000
0!
0'
#3335000000
1!
1'
b000000000000000101001110 A
#3340000000
0!
0'
#3345000000
1!
1'
b000000000000000101001111 A
#3350000000
0!
0'
#3355000000
1!
1'
b000000000000000101010000 A
#3360000000
0!
0'
#3365000000
1!
1'
b000000000000000101010001 A
#3370000000
0!
0'
#3375000000
1!
1'
b000000000000000101010010 A
#3380000000
0!
0'
#3385000000
1!
1'
b000000000000000101010011 A
#3390000000
0!
0'
#3395000000
1!
1'
b000000000000000101010100 A
#3400000000
0!
0'
#3405000000
1!
1'
b000000000000000101010101 A
#3410000000
0!
0'
#3415000000
1!
1'
b000000000000000101010110 A
#3420000000
0!
0'
#3425000000
1!
1'
b000000000000000101010111 A
#3430000000
0!
0'
#3435000000
1!
1'
b000000000000000101011000 A
#3440000000
0!
0'
#3445000000
1!
1'
b000000000000000101011001 A
#3450000000
0!
0'
#3455000000
1!
1'
b000000000000000101011010 A
#3460000000
0!
0'
#3465000000
1!
1'
b000000000000000101011011 A
#3470000000
0!
0'
#3475000000
1!
1'
b000000000000000101011100 A
#3480000000
0!
0'
#3485000000
1!
1'
b000000000000000101011101 A
#3490000000
0!
0'
#3495000000
1!
1'
b000000000000000101011110 A
#3500000000
0!
0'
#3505000000
1!
1'
b000000000000000101011111 A
#3510000000
0!
0'
#3515000000
1!
1'
b000000000000000101100000 A
#3520000000
0!
0'
#3525000000
1!
1'
b000000000000000101100001 A
#3530000000
0!
0'
#3535000000
1!
1'
b000000000000000101100010 A
#3540000000
0!
0'
#3545000000
1!
1'
b000000000000000101100011 A
#3550000000
0!
0'
#3555000000
1!
1'
b000000000000000101100100 A
#3560000000
0!
0'
#3565000000
1!
1'
b000000000000000101100101 A
#3570000000
0!
0'
#3575000000
1!
1'
b000000000000000101100110 A
#3580000000
0!
0'
#3585000000
1!
1'
b000000000000000101100111 A
#3590000000
0!
0'
#3595000000
1!
1'
b000000000000000101101000 A
#3600000000
0!
0'
#3605000000
1!
1'
b000000000000000101101001 A
#3610000000
0!
0'
#3615000000
1!
1'
b000000000000000101101010 A
#3620000000
0!
0'
#3625000000
1!
1'
b000000000000000101101011 A
#3630000000
0!
0'
#3635000000
1!
1'
b000000000000000101101100 A
#3640000000
0!
0'
#3645000000
1!
1'
b000000000000000101101101 A
#3650000000
0!
0'
#3655000000
1!
1'
b000000000000000101101110 A
#3660000000
0!
0'
#3665000000
1!
1'
b000000000000000101101111 A
#3670000000
0!
0'
#3675000000
1!
1'
b000000000000000101110000 A
#3680000000
0!
0'
#3685000000
1!
1'
b000000000000000101110001 A
#3690000000
0!
0'
#3695000000
1!
1'
b000000000000000101110010 A
#3700000000
0!
0'
#3705000000
1!
1'
b000000000000000101110011 A
#3710000000
0!
0'
#3715000000
1!
1'
b000000000000000101110100 A
#3720000000
0!
0'
#3725000000
1!
1'
b000000000000000101110101 A
#3730000000
0!
0'
#3735000000
1!
1'
b000000000000000101110110 A
#3740000000
0!
0'
#3745000000
1!
1'
b000000000000000101110111 A
#3750000000
0!
0'
#3755000000
1!
1'
b000000000000000101111000 A
#3760000000
0!
0'
#3765000000
1!
1'
b000000000000000101111001 A
#3770000000
0!
0'
#3775000000
1!
1'
b000000000000000101111010 A
#3780000000
0!
0'
#3785000000
1!
1'
b000000000000000101111011 A
#3790000000
0!
0'
#3795000000
1!
1'
b000000000000000101111100 A
#3800000000
0!
0'
#3805000000
1!
1'
b000000000000000101111101 A
#3810000000
0!
0'
#3815000000
1!
1'
b000000000000000101111110 A
#3820000000
0!
0'
#3825000000
1!
1'
b000000000000000101111111 A
#3830000000
0!
0'
#3835000000
1!
1'
b000000000000000110000000 A
#3840000000
0!
0'
#3845000000
1!
1'
b000000000000000110000001 A
#3850000000
0!
0'
#3855000000
1!
1'
b000000000000000110000010 A
#3860000000
0!
0'
